<?xml version="1.0" encoding="utf-8"?>
<!-- Generator: Adobe Illustrator 16.0.0, SVG Export Plug-In . SVG Version: 6.00 Build 0)  -->
<!DOCTYPE svg PUBLIC "-//W3C//DTD SVG 1.1//EN" "http://www.w3.org/Graphics/SVG/1.1/DTD/svg11.dtd">
<svg version="1.1" id="Layer_1" xmlns="http://www.w3.org/2000/svg" xmlns:xlink="http://www.w3.org/1999/xlink" x="0px" y="0px"
	 width="390px" height="469.782px" viewBox="74.333 -18.728 390 469.782" enable-background="new 74.333 -18.728 390 469.782"
	 xml:space="preserve">
<g>
	<g>
		<g id="Layer_4">
			<g>
				<path fill="#6ACDEC" d="M293.723,60.499c-0.122-8.25-3.766-9.253-8.097-2.231L87.374,379.732
					c-4.331,7.022-1.131,12.46,7.11,12.083l189.031-8.631c8.241-0.377,14.884-7.434,14.762-15.683L293.723,60.499z"/>
			</g>
			<g>
				<path fill="#6ACDEC" d="M296.467,177.21c-4.382-6.991-7.825-5.961-7.653,2.287l3.873,185.006
					c0.172,8.249,7.056,14.678,15.297,14.286l96.533-4.578c8.241-0.392,11.398-6.431,7.017-13.421L296.467,177.21z"/>
			</g>
		</g>
		<g id="Layer_2">
			<polygon fill="#14274D" points="295.085,-18.728 393.537,17.539 286.283,56.926 			"/>
		</g>
		<g id="Layer_6">
			<path fill="#2F1010" d="M464.333,401.328c0,0-257.272,36.42-390,10.338"/>
			<path fill="#666479" d="M74.333,411.666c0,0,47.332,49.999,201.332,37.333c0,0,157.335,6.658,188.668-47.671"/>
		</g>
		<g id="Layer_3">
			<polyline fill="#666479" points="283.372,-18.191 295.162,-18.728 302.128,417.5 290.874,417.5 283.372,-18.191 			"/>
		</g>
	</g>
	<g>
		<g display="none">
			<circle display="inline" opacity="0.2" fill="#14274C" cx="319.328" cy="18" r="11.935"/>
			<g display="inline" opacity="0.4">
				
					<image overflow="visible" opacity="0.75" width="78" height="79" xlink:href="BE40B15D8AD3E03F.png"  transform="matrix(1 0 0 1 280.5 -21.5)">
				</image>
				<g>
					
						<image overflow="visible" opacity="0.75" width="56" height="55" xlink:href="BE40B15D8AD3E03D.png"  transform="matrix(1 0 0 1 291.5 -9.5)">
					</image>
					<circle fill="none" stroke="#58C9EC" stroke-miterlimit="10" cx="319.328" cy="18" r="11.935"/>
				</g>
			</g>
		</g>
		<g display="none">
			
				<image display="inline" overflow="visible" opacity="0.75" width="89" height="89" xlink:href="BE40B15D8AD3E043.png"  transform="matrix(1 0 0 1 274.5 -26.5)">
			</image>
			<g display="inline">
				
					<image overflow="visible" opacity="0.75" width="63" height="63" xlink:href="BE40B15D8AD3E045.png"  transform="matrix(1 0 0 1 287.5 -13.5)">
				</image>
				<g>
					
						<image overflow="visible" opacity="0.75" width="40" height="39" xlink:href="BE40B15D8AD3E047.png"  transform="matrix(1 0 0 1 299.5 -1.5)">
					</image>
					<g>
						<g>
							<g>
								<circle opacity="0.8" fill="#6ACCEC" cx="319.327" cy="18" r="3.991"/>
								<circle fill="none" stroke="#58C9EC" stroke-miterlimit="10" cx="319.327" cy="18" r="3.991"/>
							</g>
							<defs>
								<filter id="Adobe_OpacityMaskFilter" filterUnits="userSpaceOnUse" x="314.836" y="13.508" width="8.982" height="8.982">
									<feFlood  style="flood-color:white;flood-opacity:1" result="back"/>
									<feBlend  in="SourceGraphic" in2="back" mode="normal"/>
								</filter>
							</defs>
							<mask maskUnits="userSpaceOnUse" x="314.836" y="13.508" width="8.982" height="8.982" id="SVGID_1_">
								<g filter="url(#Adobe_OpacityMaskFilter)">
									
										<image overflow="visible" width="14" height="13" xlink:href="BE40B15D8AD3E045.jpg"  transform="matrix(1 0 0 1 312.5 11.5)">
									</image>
								</g>
							</mask>
							<g opacity="0.75" mask="url(#SVGID_1_)">
								<circle opacity="0.8" fill="#6ACCEC" cx="319.327" cy="18" r="3.991"/>
								<circle fill="none" stroke="#6ACCEC" stroke-miterlimit="10" cx="319.327" cy="18" r="3.991"/>
							</g>
						</g>
						<defs>
							<filter id="Adobe_OpacityMaskFilter_1_" filterUnits="userSpaceOnUse" x="314.836" y="13.508" width="8.982" height="8.982">
								<feFlood  style="flood-color:white;flood-opacity:1" result="back"/>
								<feBlend  in="SourceGraphic" in2="back" mode="normal"/>
							</filter>
						</defs>
						<mask maskUnits="userSpaceOnUse" x="314.836" y="13.508" width="8.982" height="8.982" id="SVGID_2_">
							<g filter="url(#Adobe_OpacityMaskFilter_1_)">
								
									<image overflow="visible" width="14" height="13" xlink:href="BE40B15D8AD3E043.jpg"  transform="matrix(1 0 0 1 312.5 11.5)">
								</image>
							</g>
						</mask>
						<g opacity="0.75" mask="url(#SVGID_2_)">
							<g>
								<circle opacity="0.8" fill="#6ACCEC" cx="319.327" cy="18" r="3.991"/>
								<circle fill="none" stroke="#6ACCEC" stroke-miterlimit="10" cx="319.327" cy="18" r="3.991"/>
							</g>
							<defs>
								
									<filter id="Adobe_OpacityMaskFilter_2_" filterUnits="userSpaceOnUse" x="314.836" y="13.508" width="8.982" height="8.982">
									<feFlood  style="flood-color:white;flood-opacity:1" result="back"/>
									<feBlend  in="SourceGraphic" in2="back" mode="normal"/>
								</filter>
							</defs>
							<mask maskUnits="userSpaceOnUse" x="314.836" y="13.508" width="8.982" height="8.982" id="SVGID_2_">
								<g filter="url(#Adobe_OpacityMaskFilter_2_)">
									
										<image overflow="visible" width="14" height="13" xlink:href="BE40B15D8AD3E04D.jpg"  transform="matrix(1 0 0 1 312.5 11.5)">
									</image>
								</g>
							</mask>
							<g opacity="0.75">
								<circle opacity="0.8" fill="#6ACCEC" cx="319.327" cy="18" r="3.991"/>
								<circle fill="none" stroke="#6ACCEC" stroke-miterlimit="10" cx="319.327" cy="18" r="3.991"/>
							</g>
						</g>
					</g>
				</g>
			</g>
		</g>
		<g>
			<g>
				<g>
					<g>
						<line fill="#FFFFFF" x1="319.328" y1="2.5" x2="319.328" y2="33.5"/>
						<g>
							<g>
								<polygon fill="#FFFFFF" points="318.537,18 319.328,2.5 320.119,18 								"/>
								<polygon fill="#FFFFFF" points="320.119,18 319.328,33.5 318.537,18 								"/>
							</g>
						</g>
					</g>
					<g>
						<line fill="#FFFFFF" x1="303.827" y1="18" x2="334.828" y2="18"/>
						<g>
							<g>
								<polygon fill="#FFFFFF" points="319.328,18.791 303.827,18 319.328,17.208 								"/>
								<polygon fill="#FFFFFF" points="319.328,17.208 334.828,18 319.328,18.791 								"/>
							</g>
						</g>
					</g>
				</g>
			</g>
			<defs>
				<filter id="Adobe_OpacityMaskFilter_3_" filterUnits="userSpaceOnUse" x="303.827" y="2.5" width="31.001" height="31">
					<feFlood  style="flood-color:white;flood-opacity:1" result="back"/>
					<feBlend  in="SourceGraphic" in2="back" mode="normal"/>
				</filter>
			</defs>
			<mask maskUnits="userSpaceOnUse" x="303.827" y="2.5" width="31.001" height="31" id="SVGID_3_">
				<g filter="url(#Adobe_OpacityMaskFilter_3_)">
					<image overflow="visible" width="36" height="36" xlink:href="BE40B15D8AD3E04F.jpg"  transform="matrix(1 0 0 1 301.5 -0.5)">
					</image>
				</g>
			</mask>
			<g opacity="0.75" mask="url(#SVGID_3_)">
				<g>
					<g>
						<line fill="#FFFFFF" x1="319.328" y1="2.5" x2="319.328" y2="33.5"/>
						<g>
							<g>
								<polygon fill="#FFFFFF" points="318.537,18 319.328,2.5 320.119,18 								"/>
								<polygon fill="#FFFFFF" points="320.119,18 319.328,33.5 318.537,18 								"/>
							</g>
						</g>
					</g>
					<g>
						<line fill="#FFFFFF" x1="303.827" y1="18" x2="334.828" y2="18"/>
						<g>
							<g>
								<polygon fill="#FFFFFF" points="319.328,18.791 303.827,18 319.328,17.208 								"/>
								<polygon fill="#FFFFFF" points="319.328,17.208 334.828,18 319.328,18.791 								"/>
							</g>
						</g>
					</g>
				</g>
			</g>
		</g>
		<g opacity="0.6">
			
				<image overflow="visible" opacity="0.75" width="46" height="47" xlink:href="7F59A285109F692C.png"  transform="matrix(1 0 0 1 296.5 -5.5)">
			</image>
			<g>
				<g>
					<g>
						<line fill="#FFFFFF" x1="327" y1="10.327" x2="311.655" y2="25.672"/>
						<g>
							<g>
								<polygon fill="#FFFFFF" points="318.769,17.44 327,10.327 319.887,18.559 								"/>
								<polygon fill="#FFFFFF" points="319.887,18.559 311.655,25.672 318.769,17.44 								"/>
							</g>
						</g>
					</g>
					<g>
						<line fill="#FFFFFF" x1="311.655" y1="10.327" x2="327" y2="25.672"/>
						<g>
							<g>
								<polygon fill="#FFFFFF" points="318.769,18.559 311.655,10.327 319.887,17.44 								"/>
								<polygon fill="#FFFFFF" points="319.887,17.44 327,25.672 318.769,18.559 								"/>
							</g>
						</g>
					</g>
				</g>
			</g>
		</g>
		<g>
			
				<image overflow="visible" opacity="0.5" width="56" height="55" xlink:href="7F59A285109F692B.png"  transform="matrix(1 0 0 1 291.5 -9.5)">
			</image>
			<g>
				<image overflow="visible" width="34" height="35" xlink:href="7F59A285109F6924.png"  transform="matrix(1 0 0 1 302.5 0.5)">
				</image>
				<g>
					<g>
						<radialGradient id="SVGID_4_" cx="319.3281" cy="18" r="1.5754" gradientUnits="userSpaceOnUse">
							<stop  offset="0" style="stop-color:#FFFFFF"/>
							<stop  offset="0.3825" style="stop-color:#FFFCFD"/>
							<stop  offset="0.6258" style="stop-color:#FEF4F6"/>
							<stop  offset="0.8297" style="stop-color:#FCE5EB"/>
							<stop  offset="1" style="stop-color:#FAD2DC"/>
						</radialGradient>
						<circle opacity="0.8" fill="url(#SVGID_4_)" cx="319.328" cy="18" r="1.576"/>
					</g>
					<defs>
						<filter id="Adobe_OpacityMaskFilter_4_" filterUnits="userSpaceOnUse" x="317.752" y="16.424" width="3.151" height="3.152">
							<feFlood  style="flood-color:white;flood-opacity:1" result="back"/>
							<feBlend  in="SourceGraphic" in2="back" mode="normal"/>
						</filter>
					</defs>
					<mask maskUnits="userSpaceOnUse" x="317.752" y="16.424" width="3.151" height="3.152" id="SVGID_5_">
						<g filter="url(#Adobe_OpacityMaskFilter_4_)">
							<image overflow="visible" width="8" height="9" xlink:href="7F59A285109F6924.jpg"  transform="matrix(1 0 0 1 315.5 13.5)">
							</image>
						</g>
					</mask>
					<g opacity="0.75" mask="url(#SVGID_5_)">
						<circle opacity="0.8" fill="#FFFFFF" cx="319.328" cy="18" r="1.576"/>
					</g>
				</g>
			</g>
		</g>
	</g>
</g>
</svg>
